{
  "project_info": {
    "project_number": "153925134446",
    "firebase_url": "https://appifix-88c8f.firebaseio.com",
    "project_id": "appifix-88c8f",
    "storage_bucket": "appifix-88c8f.appspot.com"
  },
  "client": [
    {
      "client_info": {
        "mobilesdk_app_id": "1:153925134446:android:ea18215435539bbd",
        "android_client_info": {
          "package_name": "oomovil.com.appifix"
        }
      },
      "oauth_client": [
        {
          "client_id": "153925134446-8elk6q8e6o6j85j0c5g7subib74471nc.apps.googleusercontent.com",
          "client_type": 1,
          "android_info": {
            "package_name": "oomovil.com.appifix",
            "certificate_hash": "cfcdb325d2f1dd2c596dfcdebc2758b5b519a997"
          }
        },
        {
          "client_id": "153925134446-2de9smm8td60bd35u2el18bckbjc0uis.apps.googleusercontent.com",
          "client_type": 3
        }
      ],
      "api_key": [
        {
          "current_key": "AIzaSyAwcjKtjs9wNOb4FR_ZidCZ6AZZvQdgbKE"
        }
      ],
      "services": {
        "analytics_service": {
          "status": 1
        },
        "appinvite_service": {
          "status": 2,
          "other_platform_oauth_client": [
            {
              "client_id": "153925134446-2de9smm8td60bd35u2el18bckbjc0uis.apps.googleusercontent.com",
              "client_type": 3
            },
            {
              "client_id": "153925134446-aoie6vicjv47187tnkh5eme2ih4c84kd.apps.googleusercontent.com",
              "client_type": 2,
              "ios_info": {
                "bundle_id": "com.oOMovil.APPIFIX",
                "app_store_id": "1297048910"
              }
            }
          ]
        },
        "ads_service": {
          "status": 2
        }
      }
    }
  ],
  "configuration_version": "1"
}